ISSS624 - Applied Geospatial Analytics - In-class Exercise 2 - sfdep for Spatial Weights, GLSA & EHSA
…
[1] TRUE

Code

# Display a summary of the spacetime object
print(glimpse(GDPPC_st))

Rows: 1,496
Columns: 3
$ Year   <dbl> 2005, 2005, 2005, 2005, 2005, 2005, 2005, 2005, 2005, 2005, 200…
$ County <chr> "Longshan", "Changsha", "Wangcheng", "Ningxiang", "Liuyang", "Z…
$ GDPPC  <dbl> 3469, 24612, 14659, 11687, 13406, 8546, 10944, 8040, 7383, 1168…
# A tibble: 1,496 × 3
    Year County    GDPPC
 * <dbl> <chr>     <dbl>
 1  2005 Longshan   3469
 2  2005 Changsha  24612
 3  2005 Wangcheng 14659
 4  2005 Ningxiang 11687
 5  2005 Liuyang   13406
 6  2005 Zhuzhou    8546
 7  2005 You       10944
 8  2005 Chaling    8040
 9  2005 Yanling    7383
10  2005 Liling    11688
# ℹ 1,486 more rows
…
Rows: 1,496
Columns: 5
$ Year   <dbl> 2005, 2005, 2005, 2005, 2005, 2005, 2005, 2005, 2005, 2005, 200…
$ County <chr> "Anxiang", "Hanshou", "Jinshi", "Li", "Linli", "Shimen", "Liuya…
$ GDPPC  <dbl> 8184, 6560, 9956, 8394, 8850, 9244, 13406, 11687, 14659, 7423, …
$ nb     <list> <1, 2, 3, 4, 57, 85>, <1, 2, 57, 58, 78, 85>, <1, 3, 4, 5, 85>…
$ wt     <list> <0.00000000, 0.01526149, 0.03515537, 0.02176677, 0.02836978, 0…

Code

GDPPC_st

# A tibble: 1,496 × 3
    Year County    GDPPC
 * <dbl> <chr>     <dbl>
 1  2005 Longshan   3469
 2  2005 Changsha  24612
 3  2005 Wangcheng 14659
 4  2005 Ningxiang 11687
 5  2005 Liuyang   13406
 6  2005 Zhuzhou    8546
 7  2005 You       10944
 8  2005 Chaling    8040
 9  2005 Yanling    7383
10  2005 Liling    11688
# ℹ 1,486 more rows
…
