ISSS624 - Applied Geospatial Analytics - In-class Exercise 3 - Calibrating Spatial Interaction Models with R
…
Now, left_join() of dplyr will be used to flow_data dataframe and distPair dataframe. The output is called flow_data1.

Code

flow_data1 <- flow_data %>%
  left_join (distPair,
             by = c("ORIGIN_SZ" = "orig",
                    "DESTIN_SZ" = "dest"))

# check the output
print(flow_data1)

# A tibble: 20,595 × 6
# Groups:   ORIGIN_SZ [309]
   ORIGIN_SZ DESTIN_SZ TRIPS FlowNoIntra   offset  dist
   <fct>     <fct>     <dbl>       <dbl>    <dbl> <dbl>
 1 AMSZ01    AMSZ01     1866           0 0.000001   50 
 2 AMSZ01    AMSZ02     8726        8726 1         810.
 3 AMSZ01    AMSZ03    12598       12598 1        1361.
 4 AMSZ01    AMSZ04     2098        2098 1         840.
 5 AMSZ01    AMSZ05     7718        7718 1        1077.
 6 AMSZ01    AMSZ06     1631        1631 1         805.
 7 AMSZ01    AMSZ07     1308        1308 1        1799.
 8 AMSZ01    AMSZ08     2261        2261 1        2576.
 9 AMSZ01    AMSZ09     1526        1526 1        1204.
10 AMSZ01    AMSZ10      141         141 1        1418.
# ℹ 20,585 more rows

5 Feature Engineering - Preparing Origin and Destination Attributes

5.1 Importing population data

Code

pop <- read_csv("../data/aspatial/pop.csv")

# check the output
pop

# A tibble: 332 × 5
   PA         SZ                     AGE7_12 AGE13_24 AGE25_64
   <chr>      <chr>                    <dbl>    <dbl>    <dbl>
 1 ANG MO KIO ANG MO KIO TOWN CENTRE     310      710     2780
 2 ANG MO KIO CHENG SAN                 1140     2770    15700
 3 ANG MO KIO CHONG BOON                1010     2650    14240
 4 ANG MO KIO KEBUN BAHRU               1050     2390    12460
 5 ANG MO KIO SEMBAWANG HILLS            420     1120     3620
 6 ANG MO KIO SHANGRI-LA                 810     1920     9650
 7 ANG MO KIO TAGORE                     390     1150     4350
 8 ANG MO KIO TOWNSVILLE                 980     2000    11320
 9 ANG MO KIO YIO CHU KANG                 0        0        0
10 ANG MO KIO YIO CHU KANG EAST          260      650     2500
# ℹ 322 more rows
…
